<?xml version="1.0" encoding="UTF-8"?>
<session version="1.0">
<refactoring comment="Rename resource &apos;spring-learn/src/main/resources/countries.xml&apos; to &apos;country.xml&apos;" description="Rename resource &apos;countries.xml&apos;" flags="7" id="org.eclipse.ltk.core.refactoring.rename.resource" input="src/main/resources/countries.xml" name="country.xml" stamp="1595235902689" updateReferences="true"/>
</session>